<?xml version="1.0" encoding="UTF-8" standalone="no"?>
<svg
   xmlns:dc="http://purl.org/dc/elements/1.1/"
   xmlns:cc="http://creativecommons.org/ns#"
   xmlns:rdf="http://www.w3.org/1999/02/22-rdf-syntax-ns#"
   xmlns:svg="http://www.w3.org/2000/svg"
   xmlns="http://www.w3.org/2000/svg"
   id="svg22"
   version="1.1"
   viewBox="0 0 50 50"
   height="50"
   width="50">
  <metadata
     id="metadata26">
    <rdf:RDF>
      <cc:Work
         rdf:about="">
        <dc:format>image/svg+xml</dc:format>
        <dc:type
           rdf:resource="http://purl.org/dc/dcmitype/StillImage" />
        <dc:title>Group</dc:title>
      </cc:Work>
    </rdf:RDF>
  </metadata>
  <!-- Generator: Sketch 3.3.2 (12043) - http://www.bohemiancoding.com/sketch -->
  <title
     id="title2">Group</title>
  <desc
     id="desc4">Created with Sketch.</desc>
  <path
     d="m 45.829242,27.828584 c 1.56109,-1.5611 1.56095,-4.09606 0,-5.65691 L 27.828472,4.1708044 c -1.56109,-1.56109 -4.09591,-1.56109 -5.657,0 L 4.1707919,22.171484 c -1.56109,1.56109 -1.56104,4.09586 0,5.65695 l 18.0009201,18.00087 c 1.56085,1.56085 4.09576,1.56104 5.65685,0 z"
     style="clip-rule:evenodd;fill:#f1502f;fill-rule:evenodd;stroke:none;stroke-width:0.35909024;stroke-linecap:square;stroke-miterlimit:1.5"
     id="path6" />
  <defs
     id="defs6" />
  <g
     id="text832"
     style="font-style:italic;font-variant:normal;font-weight:600;font-stretch:normal;font-size:31.04107094px;line-height:100%;font-family:'Open Sans';-inkscape-font-specification:'Open Sans Semi-Bold Italic';letter-spacing:0.38801339px;word-spacing:0px;fill:#ffffff;fill-opacity:1;stroke:none;stroke-width:0.38801339px;stroke-linecap:butt;stroke-linejoin:miter;stroke-opacity:1"
     aria-label="E" />
  <path
     id="path1391"
     d=""
     style="fill:#000000;stroke-width:0.18506929" />
  <path
     id="path1389"
     d=""
     style="fill:#000000;stroke-width:0.18506929" />
  <path
     id="path1523"
     d="m 16.476321,36.969854 c -0.4527,-0.239394 -0.77318,-0.559874 -1.012575,-1.012571 L 15.1135,35.294955 V 25 14.705044 l 0.350246,-0.662324 c 0.239395,-0.4527 0.559875,-0.77318 1.012575,-1.012577 l 0.662324,-0.350244 h 5.186666 5.186666 l 3.687264,3.68957 3.687259,3.689564 v 7.617961 7.617961 l -0.350246,0.662328 c -0.239395,0.452697 -0.559875,0.773177 -1.012575,1.012571 l -0.662324,0.350247 H 25 17.138645 Z M 32.3008,28.042001 V 21.3496 h -3.042 -3.042 v -3.042001 -3.042 H 21.958 17.6992 V 25 34.734401 H 25 32.3008 Z"
     style="fill:#000000;stroke-width:0.15210001" />
  <g
     transform="matrix(0.1521,0,0,0.1521,32.948546,23.884933)"
     id="g1657">
    <g
       transform="matrix(1.4722981,0,0,1.4722981,90.75559,-354.30885)"
       id="g4612"
       style="fill:#ffffff;fill-opacity:1;stroke-width:2.0376308;stroke-miterlimit:4;stroke-dasharray:none">
      <path
         style="fill:#ffffff;fill-opacity:1;fill-rule:evenodd;stroke:#000000;stroke-width:2.0376308;stroke-linecap:butt;stroke-linejoin:miter;stroke-miterlimit:4;stroke-dasharray:none;stroke-opacity:1"
         d="m -120.30162,272.16899 v -26.02113 h 5.05019 v 26.02113 z"
         id="path4592" />
      <path
         style="opacity:1;fill:#ffffff;fill-opacity:1;stroke:#000000;stroke-width:2.0376308;stroke-miterlimit:4;stroke-dasharray:none;stroke-dashoffset:0;stroke-opacity:1"
         d="m -118.71412,278.74643 h 12.17084 V 239.6259 h -12.17084 l -1.5875,2.7734 v 3.74856 l 1.05834,3.25817 -1.05834,7.5359 v 4.48847 l 1.05834,7.5359 -1.05834,3.20269 v 3.80404 z"
         id="rect4544-3" />
      <path
         style="fill:#ffffff;fill-opacity:1;fill-rule:evenodd;stroke:#000000;stroke-width:2.0376308;stroke-linecap:butt;stroke-linejoin:miter;stroke-miterlimit:4;stroke-dasharray:none;stroke-opacity:1"
         d="m -119.24328,249.40603 h 12.80319"
         id="path4600" />
      <path
         style="fill:#ffffff;fill-opacity:1;fill-rule:evenodd;stroke:#000000;stroke-width:2.0376308;stroke-linecap:butt;stroke-linejoin:miter;stroke-miterlimit:4;stroke-dasharray:none;stroke-opacity:1"
         d="m -119.24328,268.96629 h 12.53592"
         id="path4602" />
      <path
         style="opacity:1;fill:#ffffff;fill-opacity:1;stroke:#000000;stroke-width:2.0376308;stroke-miterlimit:4;stroke-dasharray:none;stroke-dashoffset:0;stroke-opacity:1"
         d="m -106.54276,247.68971 h 30.917242 l 1.5875,1.90252 v 18.62171 l -1.5875,1.90251 h -30.917242 z"
         id="rect4604" />
    </g>
    <path
       id="path4614"
       d="m -64.358234,10.544605 2.225733,32.599033"
       style="fill:#ffffff;fill-opacity:1;fill-rule:evenodd;stroke:#000000;stroke-width:1;stroke-linecap:butt;stroke-linejoin:miter;stroke-miterlimit:4;stroke-dasharray:none;stroke-opacity:1" />
    <path
       id="path4614-5"
       d="m -56.044009,10.544605 2.225727,32.599033"
       style="fill:#ffffff;fill-opacity:1;fill-rule:evenodd;stroke:#000000;stroke-width:1;stroke-linecap:butt;stroke-linejoin:miter;stroke-miterlimit:4;stroke-dasharray:none;stroke-opacity:1" />
    <path
       id="path4614-2"
       d="m -47.729813,10.544605 2.225734,32.599033"
       style="fill:#ffffff;fill-opacity:1;fill-rule:evenodd;stroke:#000000;stroke-width:1;stroke-linecap:butt;stroke-linejoin:miter;stroke-miterlimit:4;stroke-dasharray:none;stroke-opacity:1" />
    <path
       id="path4614-1"
       d="m -39.415618,10.544605 2.225734,32.599049"
       style="fill:#ffffff;fill-opacity:1;fill-rule:evenodd;stroke:#000000;stroke-width:1;stroke-linecap:butt;stroke-linejoin:miter;stroke-miterlimit:4;stroke-dasharray:none;stroke-opacity:1" />
    <path
       id="path4614-0"
       d="m -31.101423,10.544605 2.225734,32.599033"
       style="fill:#ffffff;fill-opacity:1;fill-rule:evenodd;stroke:#000000;stroke-width:1;stroke-linecap:butt;stroke-linejoin:miter;stroke-miterlimit:4;stroke-dasharray:none;stroke-opacity:1" />
    <path
       id="path4614-60"
       d="m -22.787228,10.544605 2.225734,32.599033"
       style="fill:#ffffff;fill-opacity:1;fill-rule:evenodd;stroke:#000000;stroke-width:1;stroke-linecap:butt;stroke-linejoin:miter;stroke-miterlimit:4;stroke-dasharray:none;stroke-opacity:1" />
  </g>
</svg>
