<?xml version="1.0" encoding="UTF-8" standalone="no"?>
<svg
   xmlns:dc="http://purl.org/dc/elements/1.1/"
   xmlns:cc="http://creativecommons.org/ns#"
   xmlns:rdf="http://www.w3.org/1999/02/22-rdf-syntax-ns#"
   xmlns:svg="http://www.w3.org/2000/svg"
   xmlns="http://www.w3.org/2000/svg"
   width="50"
   height="50"
   viewBox="0 0 50 50"
   version="1.1"
   id="svg22">
  <metadata
     id="metadata26">
    <rdf:RDF>
      <cc:Work
         rdf:about="">
        <dc:format>image/svg+xml</dc:format>
        <dc:type
           rdf:resource="http://purl.org/dc/dcmitype/StillImage" />
        <dc:title>Group</dc:title>
      </cc:Work>
    </rdf:RDF>
  </metadata>
  <!-- Generator: Sketch 3.3.2 (12043) - http://www.bohemiancoding.com/sketch -->
  <title
     id="title2">Group</title>
  <desc
     id="desc4">Created with Sketch.</desc>
  <path
     id="path6"
     style="clip-rule:evenodd;fill:#f1502f;fill-rule:evenodd;stroke:none;stroke-width:0.35909024;stroke-linecap:square;stroke-miterlimit:1.5"
     d="m 45.829242,27.828584 c 1.56109,-1.5611 1.56095,-4.09606 0,-5.65691 L 27.828472,4.1708044 c -1.56109,-1.56109 -4.09591,-1.56109 -5.657,0 L 4.1707919,22.171484 c -1.56109,1.56109 -1.56104,4.09586 0,5.65695 l 18.0009201,18.00087 c 1.56085,1.56085 4.09576,1.56104 5.65685,0 z" />
  <defs
     id="defs6" />
  <g
     aria-label="E"
     style="font-style:italic;font-variant:normal;font-weight:600;font-stretch:normal;font-size:31.04107094px;line-height:100%;font-family:'Open Sans';-inkscape-font-specification:'Open Sans Semi-Bold Italic';letter-spacing:0.38801339px;word-spacing:0px;fill:#ffffff;fill-opacity:1;stroke:none;stroke-width:0.38801339px;stroke-linecap:butt;stroke-linejoin:miter;stroke-opacity:1"
     id="text832" />
  <path
     style="fill:#000000;stroke-width:0.18506929"
     d=""
     id="path1391" />
  <path
     style="fill:#000000;stroke-width:0.18506929"
     d=""
     id="path1389" />
  <path
     style="stroke-width:1.4703126;fill:#ffffff;fill-opacity:1"
     id="path2"
     d="m 33.549868,13.928547 c -0.117626,0 -0.235251,-0.02941 -0.338173,-0.08822 -2.822999,-1.45561 -5.263718,-2.073141 -8.18964,-2.073141 -2.911219,0 -5.675407,0.691046 -8.189641,2.073141 -0.352875,0.191141 -0.793969,0.05881 -0.999813,-0.294062 -0.19114,-0.352875 -0.05881,-0.808672 0.294063,-0.999813 2.734781,-1.485016 5.734218,-2.249578 8.895391,-2.249578 3.131766,0 5.866547,0.691047 8.865984,2.234875 0.367579,0.19114 0.499907,0.632234 0.308766,0.98511 -0.132328,0.264655 -0.382282,0.411687 -0.646937,0.411687 z m -21.040173,7.719141 c -0.147032,0 -0.294063,-0.04411 -0.426391,-0.132328 -0.338171,-0.23525 -0.411687,-0.691047 -0.176437,-1.029219 1.45561,-2.058437 3.308203,-3.675781 5.513672,-4.807922 4.616781,-2.381907 10.527438,-2.396609 15.158922,-0.0147 2.205468,1.13214 4.058063,2.734781 5.513672,4.778515 0.23525,0.323469 0.161734,0.79397 -0.176438,1.029219 -0.338171,0.23525 -0.793968,0.161734 -1.029219,-0.176437 -1.323281,-1.852594 -2.999437,-3.308203 -4.984358,-4.322719 -4.219798,-2.161359 -9.615845,-2.161359 -13.820939,0.0147 -1.999625,1.029219 -3.675781,2.499531 -4.999062,4.352125 -0.117625,0.205844 -0.338172,0.308765 -0.573422,0.308765 z m 9.189453,17.746674 c -0.191141,0 -0.382281,-0.07352 -0.51461,-0.220548 -1.279171,-1.279171 -1.970218,-2.102548 -2.955327,-3.881625 -1.014516,-1.808484 -1.543828,-4.013954 -1.543828,-6.381157 0,-4.366829 3.734593,-7.924985 8.321968,-7.924985 4.587376,0 8.321969,3.558156 8.321969,7.924985 0,0.411687 -0.323469,0.735156 -0.735156,0.735156 -0.411687,0 -0.735156,-0.323469 -0.735156,-0.735156 0,-3.558157 -3.072953,-6.454672 -6.851657,-6.454672 -3.778703,0 -6.851656,2.896515 -6.851656,6.454672 0,2.117251 0.4705,4.072766 1.367391,5.660703 0.941,1.690859 1.587938,2.411313 2.720078,3.558157 0.279359,0.294063 0.279359,0.749858 0,1.043921 -0.161734,0.147032 -0.352875,0.220548 -0.544016,0.220549 z m 10.542141,-2.720079 c -1.749672,0 -3.2935,-0.441094 -4.557969,-1.308578 -2.190765,-1.485016 -3.499343,-3.896328 -3.499343,-6.454672 0,-0.411687 0.323469,-0.735156 0.735156,-0.735156 0.411687,0 0.735156,0.323469 0.735156,0.735156 0,2.073141 1.058625,4.028656 2.852407,5.234313 1.043921,0.705749 2.264281,1.043922 3.734593,1.043922 0.352875,0 0.941,-0.04411 1.529125,-0.147032 0.396985,-0.07352 0.779266,0.191139 0.852781,0.602829 0.07352,0.396983 -0.19114,0.779264 -0.602828,0.85278 -0.838078,0.161735 -1.573234,0.176438 -1.779078,0.176438 z m -2.955328,3.028844 c -0.05881,0 -0.132328,-0.0147 -0.19114,-0.02941 -2.337798,-0.646938 -3.866923,-1.514422 -5.469563,-3.087657 -2.058437,-2.043734 -3.190578,-4.763812 -3.190578,-7.675031 0,-2.381906 2.029031,-4.322719 4.528562,-4.322719 2.499531,0 4.528562,1.940813 4.528562,4.322719 0,1.573234 1.367391,2.852406 3.058251,2.852406 1.690859,0 3.05825,-1.279172 3.05825,-2.852407 0,-5.543078 -4.778516,-10.042234 -10.659766,-10.042234 -4.175688,0 -7.998501,2.323094 -9.718766,5.925359 -0.573422,1.190954 -0.867484,2.58775 -0.867484,4.116876 0,1.146844 0.102925,2.955329 0.985109,5.307827 0.147032,0.382281 -0.04411,0.808673 -0.426391,0.941001 -0.382281,0.147031 -0.808672,-0.05882 -0.941,-0.426391 -0.720452,-1.92611 -1.073327,-3.837516 -1.073327,-5.822438 0,-1.764375 0.338171,-3.367016 0.999812,-4.763812 1.955515,-4.102173 6.292938,-6.763438 11.042047,-6.763438 6.689922,0 12.130078,5.160796 12.130078,11.512547 0,2.381906 -2.029031,4.322719 -4.528562,4.322719 -2.499531,0 -4.528563,-1.940813 -4.528563,-4.322719 0,-1.573235 -1.367391,-2.852406 -3.05825,-2.852406 -1.690859,0 -3.05825,1.279171 -3.05825,2.852406 0,2.514235 0.970406,4.866734 2.749484,6.631109 1.396798,1.382094 2.734781,2.146657 4.807922,2.720078 0.396985,0.102926 0.617532,0.51461 0.51461,0.896891 -0.07352,0.338172 -0.382281,0.558719 -0.691047,0.558719 z" />
</svg>
