<?xml version="1.0" encoding="UTF-8" standalone="no"?>
<svg
   xmlns:dc="http://purl.org/dc/elements/1.1/"
   xmlns:cc="http://creativecommons.org/ns#"
   xmlns:rdf="http://www.w3.org/1999/02/22-rdf-syntax-ns#"
   xmlns:svg="http://www.w3.org/2000/svg"
   xmlns="http://www.w3.org/2000/svg"
   width="50"
   height="50"
   viewBox="0 0 50 50"
   version="1.1"
   id="svg22">
  <metadata
     id="metadata26">
    <rdf:RDF>
      <cc:Work
         rdf:about="">
        <dc:format>image/svg+xml</dc:format>
        <dc:type
           rdf:resource="http://purl.org/dc/dcmitype/StillImage" />
        <dc:title>Group</dc:title>
      </cc:Work>
    </rdf:RDF>
  </metadata>
  <!-- Generator: Sketch 3.3.2 (12043) - http://www.bohemiancoding.com/sketch -->
  <title
     id="title2">Group</title>
  <desc
     id="desc4">Created with Sketch.</desc>
  <path
     id="path6"
     style="clip-rule:evenodd;fill:#f1502f;fill-rule:evenodd;stroke:none;stroke-width:0.35909024;stroke-linecap:square;stroke-miterlimit:1.5"
     d="m 45.829242,27.828584 c 1.56109,-1.5611 1.56095,-4.09606 0,-5.65691 L 27.828472,4.1708044 c -1.56109,-1.56109 -4.09591,-1.56109 -5.657,0 L 4.1707919,22.171484 c -1.56109,1.56109 -1.56104,4.09586 0,5.65695 l 18.0009201,18.00087 c 1.56085,1.56085 4.09576,1.56104 5.65685,0 z" />
  <defs
     id="defs6" />
  <g
     aria-label="E"
     style="font-style:italic;font-variant:normal;font-weight:600;font-stretch:normal;font-size:31.04107094px;line-height:100%;font-family:'Open Sans';-inkscape-font-specification:'Open Sans Semi-Bold Italic';letter-spacing:0.38801339px;word-spacing:0px;fill:#ffffff;fill-opacity:1;stroke:none;stroke-width:0.38801339px;stroke-linecap:butt;stroke-linejoin:miter;stroke-opacity:1"
     id="text832" />
  <path
     style="fill:#000000;stroke-width:0.18506929"
     d=""
     id="path1391" />
  <path
     style="fill:#000000;stroke-width:0.18506929"
     d=""
     id="path1389" />
  <path
     d="m 12.015188,25 c 0,-2.741238 2.228258,-4.969496 4.969496,-4.969496 h 6.412253 v -3.04582 h -6.412253 c -4.424455,0 -8.0153161,3.590862 -8.0153161,8.015316 0,4.424454 3.5908611,8.015316 8.0153161,8.015316 h 6.412253 v -3.04582 h -6.412253 c -2.741238,0 -4.969496,-2.228258 -4.969496,-4.969496 z m 6.572559,1.603063 H 31.412253 V 23.396937 H 18.587747 Z m 14.427569,-9.618379 h -6.412253 v 3.04582 h 6.412253 c 2.741238,0 4.969496,2.228258 4.969496,4.969496 0,2.741238 -2.228258,4.969496 -4.969496,4.969496 h -6.412253 v 3.04582 h 6.412253 c 4.424454,0 8.015316,-3.590862 8.015316,-8.015316 0,-4.424454 -3.590862,-8.015316 -8.015316,-8.015316 z"
     id="path4"
     style="fill:#ffffff;fill-opacity:1;stroke-width:1.60306323" />
</svg>
